GL_SIMLR
…
`mutate_all()` ignored the following grouping variables:
Columns `simulation`, `scenario`
Use `mutate_at(df, vars(-group_cols()), myoperation)` to silence the message.

compare_gl_term

# A tibble: 54 x 9
# Groups:   scenario [18]
   scenario  type global_GL global_GL_nbeta global_GL_tunn local_GL
   <fct>    <dbl>     <dbl>           <dbl>          <dbl>    <dbl>
 1 n120_ef…    -1   2.12e-6       0.0000146    0.000000587  2.09e-6
 2 n120_ef…     0   7.41e-7      -0.0000594   -0.00000181  -8.15e-5
 3 n120_ef…     1  -2.86e-6       0.0000448    0.00000122   7.94e-5
 4 n120_ef…    -1  -3.05e-6       0.000302     0.00000444   1.74e-4
 5 n120_ef…     0   1.95e-6      -0.0000216   -0.00000131   5.58e-6
 6 n120_ef…     1   1.11e-6      -0.000280    -0.00000313  -1.79e-4
 7 n120_ef…    -1   4.83e-6       0.000450     0.00000391   2.42e-4
 8 n120_ef…     0  -1.19e-6       0.0000631    0.00000265  -4.35e-5
 9 n120_ef…     1  -3.64e-6      -0.000513    -0.00000656  -1.99e-4
10 n120_ef…    -1  -5.24e-4      -0.00339     -0.000124    -5.95e-4
# … with 44 more rows, and 3 more variables: local_GL_nbeta <dbl>,
#   local_GL_tunn <dbl>, simulation <dbl>

compare_trace_term

# A tibble: 54 x 6
# Groups:   scenario [18]
   scenario            type         GL    GL_nbeta    GL_tunn simulation
   <fct>              <dbl>      <dbl>       <dbl>      <dbl>      <dbl>
 1 n120_eff111_sig1      -1 -0.0000792  0.000616    0.000787        50.5
 2 n120_eff111_sig1       0  0.0000526 -0.000452   -0.000562        50.5
 3 n120_eff111_sig1       1  0.0000265 -0.000164   -0.000225        50.5
 4 n120_eff111_sig10     -1  0.0000100 -0.0000409  -0.0000803       50.5
 5 n120_eff111_sig10      0  0.000150   0.0000895   0.000119        50.5
 6 n120_eff111_sig10      1 -0.000160  -0.0000486  -0.0000387       50.5
 7 n120_eff111_sig100    -1 -0.000457  -0.0000108  -0.0000488       50.5
 8 n120_eff111_sig100     0  0.000273   0.00000796  0.0000124       50.5
 9 n120_eff111_sig100     1  0.000184   0.00000282  0.0000364       50.5
10 n120_eff133_sig1      -1  0.00983    0.00572     0.00705         50.5
# … with 44 more rows
…
